Introduction to DEP
…
4.3 Data preparation

The dataset has unique Uniprot identifiers, however those are not immediately informative.
The associated gene names are informative, however these are not always unique.

# Are there any duplicated gene names?
data$Gene.names %>% duplicated() %>% any()

## [1] TRUE

# Make a table of duplicated gene names
data %>% group_by(Gene.names) %>% summarize(frequency = n()) %>% 
  arrange(desc(frequency)) %>% filter(frequency > 1)

## # A tibble: 51 x 2
##    Gene.names frequency
##    <chr>          <int>
##  1 ""                 7
##  2 "ATXN2"            4
##  3 "ATXN2L"           4
##  4 "SF1"              4
##  5 "HSPA8"            3
##  6 "RBM33"            3
##  7 "UGP2"             3
##  8 "ACTL6A"           2
##  9 "BCLAF1"           2
## 10 "BRAP"             2
## # ... with 41 more rows
…
